2019-07-31 22:39:14 INFO  LobCreatorBuilderImpl:124 - HHH000424: Disabling contextual LOB creation as createClob() method threw error : java.lang.reflect.InvocationTargetException
2019-07-31 22:39:14 INFO  BasicTypeRegistry:148 - HHH000270: Type registration [java.util.UUID] overrides previous : org.hibernate.type.UUIDBinaryType@1cee6ea2
2019-07-31 22:39:16 INFO  access:47 - HHH10001501: Connection obtained from JdbcConnectionAccess [org.hibernate.engine.jdbc.env.internal.JdbcEnvironmentInitiator$ConnectionProviderJdbcConnectionAccess@6def68b1] for (non-JTA) DDL execution was not in auto-commit mode; the Connection 'local transaction' will be committed and the Connection will be set into auto-commit mode.
2019-07-31 22:39:22 INFO  QueryTranslatorFactoryInitiator:47 - HHH000397: Using ASTQueryTranslatorFactory
2019-08-01 21:12:35 INFO  LogHelper:31 - HHH000204: Processing PersistenceUnitInfo [
	name: py.com.peluqueria_CasaParanaFX_jar_1.0-SNAPSHOTPU
	...]
2019-08-01 21:12:35 INFO  Version:45 - HHH000412: Hibernate Core {5.2.12.Final}
2019-08-01 21:12:35 INFO  Environment:213 - HHH000206: hibernate.properties not found
2019-08-01 21:12:35 INFO  Version:66 - HCANN000001: Hibernate Commons Annotations {5.0.1.Final}
2019-08-01 21:12:38 WARN  pooling:70 - HHH10001002: Using Hibernate built-in connection pool (not for production use!)
2019-08-01 21:12:38 INFO  pooling:126 - HHH10001005: using driver [org.postgresql.Driver] at URL [jdbc:postgresql://localhost:5432/food_proyecto]
2019-08-01 21:12:38 INFO  pooling:135 - HHH10001001: Connection properties: {user=postgres, password=****}
2019-08-01 21:12:38 INFO  pooling:140 - HHH10001003: Autocommit mode: false
2019-08-01 21:12:38 INFO  DriverManagerConnectionProviderImpl:41 - HHH000115: Hibernate connection pool size: 20 (min=1)
2019-08-01 21:12:38 INFO  Dialect:157 - HHH000400: Using dialect: org.hibernate.dialect.PostgreSQLDialect
2019-08-01 21:12:39 INFO  LobCreatorBuilderImpl:124 - HHH000424: Disabling contextual LOB creation as createClob() method threw error : java.lang.reflect.InvocationTargetException
